Project 1: County Health and Voting Data
…
## # A tibble: 1 x 1
##   `mean(dem_vote_proportion)`
##                         <dbl>
## 1                       0.252

joinedproject %>% summarise(mean(rep_vote_proportion))

## # A tibble: 1 x 1
##   `mean(rep_vote_proportion)`
##                         <dbl>
## 1                       0.717

joinedproject %>% group_by(Health_Outcome_Rank, Health_Factor_Rank) %>% summarise(dem_vote_proportion)

## # A tibble: 253 x 3
## # Groups:   Health_Outcome_Rank, Health_Factor_Rank [243]
##    Health_Outcome_Rank Health_Factor_Rank dem_vote_proportion
##                  <dbl>              <dbl>               <dbl>
##  1                   1                  1               0.389
##  2                   2                  2               0.416
##  3                   3                  3               0.514
##  4                   4                  5               0.371
##  5                   5                  6               0.181
##  6                   6                  4               0.242
##  7                   7                  7               0.658
##  8                   8                 12               0.460
##  9                   9                 24               0.224
## 10                  10                 16               0.344
## # … with 243 more rows

joinedproject %>% group_by(Health_Outcome_Rank, Health_Factor_Rank) %>% summarise(rep_vote_proportion)

## # A tibble: 253 x 3
## # Groups:   Health_Outcome_Rank, Health_Factor_Rank [243]
##    Health_Outcome_Rank Health_Factor_Rank rep_vote_proportion
##                  <dbl>              <dbl>               <dbl>
##  1                   1                  1               0.556
##  2                   2                  2               0.513
##  3                   3                  3               0.448
##  4                   4                  5               0.571
##  5                   5                  6               0.780
##  6                   6                  4               0.712
##  7                   7                  7               0.271
##  8                   8                 12               0.469
##  9                   9                 24               0.735
## 10                  10                 16               0.576
## # … with 243 more rows

joinedproject %>%group_by(Health_Outcome_Rank, Health_Factor_Rank) %>%summarize_if(is.numeric,sum,na.rm=T)

## # A tibble: 243 x 8
## # Groups:   Health_Outcome_Rank [243]
##    Health_Outcome_… Health_Factor_R… totalvotes Democrat_Clinton
##               <dbl>            <dbl>      <int>            <int>
##  1                1                1     361419           140624
##  2                2                2     203081            84468
##  3                3                3     262066           134686
##  4                4                5     298645           110890
##  5                5                6      20120             3643
##  6                6                4      39948             9655
##  7                7                7     468720           308260
##  8                8               12      72164            33224
##  9                9               24     204632            45835
## 10               10               16      67211            23121
## # … with 233 more rows, and 4 more variables: Republican_Trump <int>,
## #   `NA` <int>, dem_vote_proportion <dbl>, rep_vote_proportion <dbl>

joinedproject %>% filter(rep_vote_proportion>dem_vote_proportion)

## # A tibble: 226 x 9
##    county Health_Outcome_… Health_Factor_R… totalvotes Democrat_Clinton
##    <chr>             <dbl>            <dbl>      <int>            <int>
##  1 Ander…              201              190      16977             3369
##  2 Andre…               41              100       4943              836
##  3 Angel…              179              150      29911             7538
##  4 Arans…              213              187      10512             2465
##  5 Archer               15               28       4283              394
##  6 Armst…               54               18       1021               70
##  7 Atasc…               82              149      13673             4651
##  8 Austin               58               53      12274             2320
##  9 Bailey              109              137       1793              397
## 10 Bande…               77               54      10218             1726
## # … with 216 more rows, and 4 more variables: Republican_Trump <int>,
## #   `NA` <int>, dem_vote_proportion <dbl>, rep_vote_proportion <dbl>

joinedproject %>% mutate_if(is.character, as.numeric) %>% arrange(Health_Outcome_Rank) %>% filter(rep_vote_proportion>dem_vote_proportion) %>% select(2,3,8,9)

## # A tibble: 226 x 4
##    Health_Outcome_Rank Health_Factor_Rank dem_vote_proportion rep_vote_proporti…
##                  <dbl>              <dbl>               <dbl>              <dbl>
##  1                   1                  1               0.389              0.556
##  2                   2                  2               0.416              0.513
##  3                   4                  5               0.371              0.571
##  4                   5                  6               0.181              0.780
##  5                   6                  4               0.242              0.712
##  6                   8                 12               0.460              0.469
##  7                   9                 24               0.224              0.735
##  8                  10                 16               0.344              0.576
##  9                  11                 11               0.229              0.726
## 10                  12                 23               0.219              0.741
## # … with 216 more rows

joinedproject %>% mutate_if(is.character, as.numeric) %>% arrange(Health_Outcome_Rank) %>% filter(rep_vote_proportion<dem_vote_proportion) %>% select(2,3,8,9)

## # A tibble: 27 x 4
##    Health_Outcome_Rank Health_Factor_Rank dem_vote_proportion rep_vote_proporti…
##                  <dbl>              <dbl>               <dbl>              <dbl>
##  1                   3                  3               0.514              0.448
##  2                   7                  7               0.658              0.271
##  3                  30                 90               0.540              0.416
##  4                  44                 62               0.608              0.346
##  5                  47                134               0.511              0.433
##  6                  48                122               0.691              0.259
##  7                  53                 25               0.542              0.408
##  8                  56                234               0.685              0.280
##  9                  73                211               0.743              0.228
## 10                  92                165               0.521              0.445
## # … with 17 more rows
…
joinedproject %>% summarise_if(is.numeric,sd)

## # A tibble: 1 x 8
##   Health_Outcome_… Health_Factor_R… totalvotes Democrat_Clinton Republican_Trump
##              <dbl>            <dbl>      <dbl>            <dbl>            <dbl>
## 1               NA               NA    119624.           64615.           51242.
## # … with 3 more variables: `NA` <dbl>, dem_vote_proportion <dbl>,
## #   rep_vote_proportion <dbl>

joinedproject %>% summarise_if(is.numeric,zscore)

## # A tibble: 253 x 8
##    Health_Outcome_… Health_Factor_R… totalvotes Democrat_Clinton
##               <dbl>            <dbl>      <dbl>            <dbl>
##  1            1.12             0.966    -0.154            -0.185
##  2           -1.15            -0.312    -0.255            -0.224
##  3            0.810            0.398    -0.0461           -0.120
##  4            1.29             0.923    -0.208            -0.199
##  5           -1.52            -1.33     -0.260            -0.231
##  6           -0.965           -1.48     -0.288            -0.236
##  7           -0.567            0.384    -0.182            -0.165
##  8           -0.908           -0.979    -0.194            -0.201
##  9           -0.184            0.213    -0.281            -0.231
## 10           -0.638           -0.965    -0.211            -0.210
## # … with 243 more rows, and 4 more variables: Republican_Trump <dbl>,
## #   `NA` <dbl>, dem_vote_proportion <dbl>, rep_vote_proportion <dbl>
…
joinedproject %>% summarise_if(is.numeric,sum)

## # A tibble: 1 x 8
##   Health_Outcome_… Health_Factor_R… totalvotes Democrat_Clinton Republican_Trump
##              <dbl>            <dbl>      <int>            <int>            <int>
## 1               NA               NA    8962382          3876705          4679528
## # … with 3 more variables: `NA` <int>, dem_vote_proportion <dbl>,
## #   rep_vote_proportion <dbl>

joinedproject %>%group_by(winning_candidate,Health_Outcome_Rank) %>% arrange(Health_Outcome_Rank)

## # A tibble: 253 x 10
## # Groups:   winning_candidate, Health_Outcome_Rank [244]
##    county Health_Outcome_… Health_Factor_R… totalvotes Democrat_Clinton
##    <chr>             <dbl>            <dbl>      <int>            <int>
##  1 Collin                1                1     361419           140624
##  2 Willi…                2                2     203081            84468
##  3 Fort …                3                3     262066           134686
##  4 Denton                4                5     298645           110890
##  5 Kenda…                5                6      20120             3643
##  6 Rockw…                6                4      39948             9655
##  7 Travis                7                7     468720           308260
##  8 Hays                  8               12      72164            33224
##  9 Montg…                9               24     204632            45835
## 10 Brazos               10               16      67211            23121
## # … with 243 more rows, and 5 more variables: Republican_Trump <int>,
## #   `NA` <int>, dem_vote_proportion <dbl>, rep_vote_proportion <dbl>,
## #   winning_candidate <chr>
…
## # A tibble: 1 x 1
##   `n()`
##   <int>
## 1   222

joinedproject %>%filter(winning_candidate=='Clinton') %>% summarise(n())

## # A tibble: 1 x 1
##   `n()`
##   <int>
## 1    26

joinedproject

## # A tibble: 253 x 10
##    county Health_Outcome_… Health_Factor_R… totalvotes Democrat_Clinton
##    <chr>             <dbl>            <dbl>      <int>            <int>
##  1 Ander…              201              190      16977             3369
##  2 Andre…               41              100       4943              836
##  3 Angel…              179              150      29911             7538
##  4 Arans…              213              187      10512             2465
##  5 Archer               15               28       4283              394
##  6 Armst…               54               18       1021               70
##  7 Atasc…               82              149      13673             4651
##  8 Austin               58               53      12274             2320
##  9 Bailey              109              137       1793              397
## 10 Bande…               77               54      10218             1726
## # … with 243 more rows, and 5 more variables: Republican_Trump <int>,
## #   `NA` <int>, dem_vote_proportion <dbl>, rep_vote_proportion <dbl>,
## #   winning_candidate <chr>
…
