Age and Traumatic Brain Injuries (TBI)
…
samp_distn%>%t%>%as.data.frame%>%gather%>%group_by(key)%>% summarize(lower=quantile(value,.025), upper=quantile(value,.975))

## # A tibble: 22 x 3
##    key            lower upper
##    <chr>          <dbl> <dbl>
##  1 (Intercept)    -10.2 -10.2
##  2 age_group0-4   110.  110. 
##  3 age_group15-24  27.4  27.4
##  4 age_group25-34  28.2  28.2
##  5 age_group35-44  33.4  33.4
##  6 age_group45-54  28.3  28.3
##  7 age_group5-14   32.0  32.0
##  8 age_group55-64  34.1  34.1
##  9 age_group65-74  72.8  72.8
## 10 age_group75+   110.  110. 
## # … with 12 more rows
…
resid_resamp%>%t%>%as.data.frame%>%gather%>%group_by(key)%>% summarize(lower=quantile(value,.025), upper=quantile(value,.975))

## # A tibble: 22 x 3
##    key            lower upper
##    <chr>          <dbl> <dbl>
##  1 (Intercept)    -10.3 -10.2
##  2 age_group0-4   110.  110. 
##  3 age_group15-24  27.4  27.5
##  4 age_group25-34  28.2  28.2
##  5 age_group35-44  33.3  33.4
##  6 age_group45-54  28.3  28.3
##  7 age_group5-14   32.0  32.0
##  8 age_group55-64  34.1  34.1
##  9 age_group65-74  72.8  72.8
## 10 age_group75+   110.  110. 
## # … with 12 more rows
…
